STAT 228: Introduction to Data Science
…
But... there are more than three columns!

---

# Tidy Data

We want to end up with this:

```r
bush_tidy
```

```
# A tibble: 849 x 3
   date       Party      Approval
   <date>     <chr>         <dbl>
 1 2009-01-13 Republican       75
 2 2008-12-16 Republican       67
 3 2008-12-09 Republican       72
 4 2008-11-18 Republican       66
 5 2008-11-11 Republican       63
 6 2008-11-04 Republican       61
 7 2008-10-28 Republican       63
 8 2008-10-14 Republican       57
 9 2008-10-07 Republican       55
10 2008-09-29 Republican       64
# … with 839 more rows
```
…
---

# `pivot_longer()`

```r
bush_tidy = bush_approval %>%
  pivot_longer(names_to = "Party", 
               values_to = "Approval", 
               cols = -date)
bush_tidy
```

```
# A tibble: 849 x 3
   date       Party       Approval
   <date>     <chr>          <dbl>
 1 2009-01-13 Republican        75
 2 2009-01-13 Independent        6
 3 2009-01-13 Democrat          28
 4 2008-12-16 Republican        67
 5 2008-12-16 Independent        7
 6 2008-12-16 Democrat          25
 7 2008-12-09 Republican        72
 8 2008-12-09 Independent        9
 9 2008-12-09 Democrat          26
10 2008-11-18 Republican        66
# … with 839 more rows
```
…
The `pivot_wider()` syntax is nearly *identical* to `pivot_longer()`, except with the `names_from` and `values_from` arguments. 

---

# Example

Let's look at the `drinks` data frame from the `fivethirtyeight` package. 

```r
library(fivethirtyeight)
drinks
```

```
# A tibble: 193 x 5
   country      beer_servings spirit_servings wine_servings total_litres_of_pur…
   <chr>                <int>           <int>         <int>                <dbl>
 1 Afghanistan              0               0             0                  0  
 2 Albania                 89             132            54                  4.9
 3 Algeria                 25               0            14                  0.7
 4 Andorra                245             138           312                 12.4
 5 Angola                 217              57            45                  5.9
 6 Antigua & B…           102             128            45                  4.9
 7 Argentina              193              25           221                  8.3
 8 Armenia                 21             179            11                  3.8
 9 Australia              261              72           212                 10.4
10 Austria                279              75           191                  9.7
# … with 183 more rows
```
…
---

# `count()`

You *could also* just use the `sort = TRUE` option in `count()` to sort in **descending order**:

```r
video_games %>%
  count(publisher, sort = TRUE)
```

```
## # A tibble: 13,954 x 2
##    publisher               n
##    <chr>               <int>
##  1 Big Fish Games        284
##  2 SEGA                  141
##  3 Strategy First        129
##  4 Ubisoft               123
##  5 Square Enix            95
##  6 <NA>                   95
##  7 Sekai Project          94
##  8 Choice of Games        92
##  9 Dagestan Technology    89
## 10 1C Entertainment       85
## # … with 13,944 more rows
```
…
> A combination of the inspection program and the type of inspection performed; See Data Dictionary for full list of expected values

---

# `separate()`

There are **a lot** of different `inspection_type` categories:

```r
nyc_restaurants %>%
  count(inspection_type, sort = TRUE) 
```

```
## # A tibble: 33 x 2
##    inspection_type                                        n
##    <chr>                                              <int>
##  1 Cycle Inspection / Initial Inspection             171657
##  2 Cycle Inspection / Re-inspection                   73207
##  3 Pre-permit (Operational) / Initial Inspection      20896
##  4 Pre-permit (Operational) / Re-inspection            9260
##  5 Administrative Miscellaneous / Initial Inspection   5513
##  6 Cycle Inspection / Reopening Inspection             3426
##  7 Pre-permit (Non-operational) / Initial Inspection   2936
##  8 Smoke-Free Air Act / Initial Inspection             2530
##  9 Administrative Miscellaneous / Re-inspection        1765
## 10 Trans Fat / Initial Inspection                      1747
## # … with 23 more rows
```
…
